Wanna be rich? Here’s how!
…
How has the relationship between wealth worth and industry among billionaires changed in North America as time goes on?

Based on our prior background knowledge, we predict that the number of billionaires involved in the industry of technology-computer will increase as time goes by because technology is an industry that is growing rapidly. We believe that the consumer industry may increase as well, and that the some of the more popular industries in 1996 might decrease in the number of billionaires as time passes. More broadly speaking, we hypothesize that the overall number of billionaires will increase, and therefore each industry will have a higher number of billionaires as time progresses, simply because there is more money in the world. We also predict that the average wealth worth will increase among all billionaires across industries as time goes.

The data was from the CORGIS Dataset Project, collected by Ryan Whitcombwas in 1996, 2001, and 2014. [1] We are using data from all three years to see how the wealth industries have changed over time by comparing data about the wealth industries from each provided year. It compiled Forbes World’s Billionaires list and shows a record number of billionaires in the world while adding detailed information on the individuals listed. The relevant variables include the year, wealth worth, industry, and their continent. In total, the data set has 22 columns and 2614 observations. We are focusing our studies on the continent North America, to explore the relationship between billionaires and wealth worth in this area in particular over time.

To help us answer our research question, we looked at the Businesstech article, “The job sectors where billionaires make their money” presents findings from a study by UBS and PwC on the sectors where most billionaires succeeded. [2] The study analyzed the wealth of 2,000 billionaires worldwide and found that the top sectors where billionaires made their wealth are finance and investments, technology, manufacturing, real estate, and fashion and retail. Finance and investments had the most billionaires with 267, followed by technology with 221, manufacturing with 215, real estate with 163, and fashion and retail with 135. The study underscores the diversity of the sectors in which billionaires can generate wealth.

This article presents findings using billionaires from all over the world, whereas our research question is only exploring billionaires within North America. This will allow us to compare how the relationship between billionaires in North America and their industries differ from billionaires worldwide. Additionally, the article notes that technology is a top sector for billionaires to make most of their money, which reflects our hypothesis that technology will reflect the greatest increase in billionaires, as it is a sector that is growing rapidly.

Methodology

Our methodology involves creating a table that counts the number of billionaires per continent in 2014. This gives us an overview of the numbers alone, industry aside. Next, in order to also compare industry and wealth worth, we thought it would be best to create a bar plot for each continent. Thus we used facet wrap to create multiple side-by-side plots that depict the relationship between industry and wealth worth.

# A tibble: 2,614 × 7
    year name                    wealth.worth.…¹ wealt…² locat…³ locat…⁴ conti…⁵
   <dbl> <chr>                             <dbl> <chr>   <chr>   <chr>   <chr>  
 1  1996 Bill Gates                         18.5 Techno… North … United… North …
 2  2001 Bill Gates                         58.7 Techno… North … United… North …
 3  2014 Bill Gates                         76   Techno… North … United… North …
 4  1996 Warren Buffett                     15   Consum… North … United… North …
 5  2001 Warren Buffett                     32.3 Consum… North … United… North …
 6  2014 Carlos Slim Helu                   72   Media   Latin … Mexico  North …
 7  1996 Oeri Hoffman and Sacher            13.1 Techno… Europe  Switze… Europe 
 8  2001 Paul Allen                         30.4 Techno… North … United… North …
 9  2014 Amancio Ortega                     64   Retail… Europe  Spain   Europe 
10  1996 Lee Shau Kee                       12.7 Real E… East A… Hong K… East A…
# … with 2,604 more rows, and abbreviated variable names
#   ¹​wealth.worth.billions, ²​wealth.how.industry, ³​location.region,
#   ⁴​location.citizenship, ⁵​continent
…
